<?xml version="1.0" encoding="utf-8"?>
<!-- Generator: Adobe Illustrator 19.1.0, SVG Export Plug-In . SVG Version: 6.00 Build 0)  -->
<svg version="1.1" id="Слой_1" xmlns="http://www.w3.org/2000/svg" xmlns:xlink="http://www.w3.org/1999/xlink" x="0px" y="0px" viewBox="0 0 120 120" style="enable-background:new 0 0 120 120;" xml:space="preserve">
    <g>
        <path fill="#00ACEC" d="M46.151,70.863l17.479-9.866l-17.479-9.801c-1.313-0.688-2.348-1.9-2.991-3.521
            c-0.711-1.739-0.738-3.624-0.084-5.446c0.59-1.729,1.812-3.001,3.439-3.577c0.56-0.198,1.134-0.309,1.698-0.326h0.107
            c0.983,0,1.911,0.279,2.755,0.809l26.173,16.082l0.732,0.66c1.096,1.272,1.695,3.336,1.736,5.15
            c-0.041,1.818-0.641,3.882-1.736,5.153l-0.732,0.655L51.075,82.917c-0.844,0.531-1.772,0.814-2.755,0.814l-0.107-0.002
            c-0.564-0.014-1.138-0.123-1.698-0.322c-1.627-0.582-2.849-1.849-3.439-3.582c-0.654-1.82-0.627-3.706,0.084-5.442
            C43.803,72.763,44.838,71.545,46.151,70.863" />
        <path fill="#FFF12D" d="M54.351,70.863l17.479-9.866l-17.479-9.801c-1.309-0.688-2.346-1.9-2.992-3.521
            c-0.709-1.739-0.735-3.624-0.085-5.446c0.593-1.729,1.814-3.001,3.443-3.577c0.559-0.198,1.134-0.309,1.695-0.326h0.107
            c0.982,0,1.911,0.279,2.757,0.809l26.171,16.082l0.734,0.66c1.096,1.272,1.695,3.336,1.739,5.15
            c-0.044,1.818-0.644,3.882-1.739,5.153l-0.734,0.655L59.276,82.917c-0.846,0.531-1.775,0.814-2.757,0.814l-0.107-0.002
            c-0.561-0.014-1.136-0.123-1.695-0.322c-1.629-0.582-2.85-1.849-3.443-3.582c-0.65-1.82-0.624-3.706,0.085-5.442
            C52.005,72.763,53.042,71.545,54.351,70.863" />
        <path fill="#CA0088" d="M38.207,70.863l17.479-9.866l-17.479-9.801c-1.314-0.688-2.348-1.9-2.994-3.521
            c-0.708-1.739-0.736-3.624-0.083-5.446c0.587-1.729,1.812-3.001,3.438-3.577c0.558-0.198,1.137-0.309,1.697-0.326h0.109
            c0.982,0,1.912,0.279,2.755,0.809l26.174,16.082l0.732,0.66c1.096,1.272,1.696,3.336,1.738,5.15
            c-0.042,1.818-0.643,3.882-1.738,5.153l-0.732,0.655L43.129,82.917c-0.843,0.531-1.773,0.814-2.755,0.814l-0.109-0.002
            c-0.56-0.014-1.139-0.123-1.697-0.322c-1.626-0.582-2.851-1.849-3.438-3.582c-0.653-1.82-0.625-3.706,0.083-5.442
            C35.859,72.763,36.893,71.545,38.207,70.863" />
        <path fill="#00A229" d="M77.248,55.217L52.569,40.053c-0.564,0.599-1.005,1.332-1.295,2.176c-0.65,1.822-0.624,3.707,0.085,5.446
            c0.646,1.621,1.683,2.833,2.992,3.521l17.479,9.801l-17.479,9.866c-1.309,0.682-2.346,1.899-2.992,3.52
            c-0.709,1.736-0.735,3.622-0.085,5.442c0.289,0.846,0.73,1.577,1.292,2.176l24.682-15.165l0.732-0.655
            c1.096-1.271,1.695-3.335,1.736-5.153c-0.041-1.814-0.641-3.878-1.736-5.15L77.248,55.217z" />
        <path fill="#00007C" d="M69.303,55.217L44.464,39.955c-0.609,0.616-1.083,1.383-1.388,2.274c-0.654,1.822-0.627,3.707,0.084,5.446
            c0.643,1.621,1.678,2.833,2.991,3.521l17.479,9.801l-17.479,9.866c-1.313,0.682-2.348,1.899-2.991,3.52
            c-0.711,1.736-0.738,3.622-0.084,5.442c0.304,0.893,0.777,1.658,1.385,2.273l24.842-15.263l0.732-0.655
            c1.096-1.271,1.696-3.335,1.738-5.153c-0.042-1.814-0.643-3.878-1.738-5.15L69.303,55.217z" />
        <path fill="#000100" d="M75.07,40.928v0.646h-1.257v3.283h-0.781v-3.283h-1.258v-0.646H75.07z M79.321,44.857l-0.145-2.311
            c-0.015-0.302-0.015-0.681-0.029-1.101h-0.045c-0.099,0.347-0.216,0.81-0.33,1.173l-0.709,2.183h-0.809l-0.709-2.244
            c-0.075-0.302-0.188-0.765-0.274-1.112h-0.046c0,0.365-0.012,0.74-0.028,1.101l-0.144,2.311H75.3l0.292-3.929h1.169l0.683,1.917
            c0.086,0.306,0.157,0.594,0.26,1.001h0.014c0.101-0.36,0.188-0.695,0.275-0.983l0.678-1.935h1.129l0.302,3.929H79.321z" />
        <path fill="#000016" d="M70.035,55.877l-0.732-0.66L50.877,43.896c-0.167,1.283-0.012,2.567,0.482,3.779
            c0.646,1.621,1.683,2.833,2.992,3.521l17.418,9.767C71.715,59.164,71.118,57.134,70.035,55.877z" />
        <path fill="#000016" d="M70.035,66.181c1.096-1.271,1.695-3.333,1.738-5.151l-17.422,9.834c-1.309,0.682-2.346,1.899-2.992,3.52
            c-0.494,1.21-0.649,2.491-0.482,3.773l18.425-11.32L70.035,66.181z" />
        <g>
            <path fill="#000100" d="M75.756,114.531L75.756,114.531l-0.956-3.276c-0.001,0.005,0.003,0.001,0.003,0.001
                c13.687-4.008,24.99-13.115,31.837-25.626c6.842-12.517,8.398-26.949,4.39-40.636l3.271-0.957
                c4.27,14.563,2.607,29.915-4.671,43.231C102.351,100.58,90.319,110.265,75.756,114.531" />
            <path fill="#000100" d="M75.754,114.531c-14.565,4.268-29.914,2.607-43.226-4.677C19.212,102.58,9.53,90.546,5.261,75.986
                l3.273-0.961c4.007,13.688,13.112,24.995,25.626,31.844c12.517,6.843,26.948,8.4,40.636,4.391
                c-0.002,0.001-0.002,0.001,0.004-0.005l0.956,3.276C75.756,114.531,75.753,114.533,75.754,114.531" />
            <path fill="#000100" d="M8.534,75.025l-3.273,0.961C0.994,61.423,2.652,46.067,9.938,32.752
                C17.217,19.443,29.245,9.761,43.809,5.49l0.955,3.272c-13.686,4.015-24.997,13.113-31.837,25.627
                C6.082,46.906,4.522,61.337,8.534,75.025" />
            <animateTransform attributeType="xml" attributeName="transform" type="rotate" from="0 60 60" to="360 60 60" dur="1.5s" repeatCount="indefinite" />
        </g>
    </g>
</svg>
